<?xml version="1.0" encoding="UTF-8" standalone="no"?>
<!DOCTYPE svg PUBLIC "-//W3C//DTD SVG 1.0//EN" "http://www.w3.org/TR/2001/REC-SVG-20010904/DTD/svg10.dtd">
<svg height="70" width="900" xmlns="http://www.w3.org/2000/svg" xmlns:svg="http://www.w3.org/2000/svg" xmlns:xlink="http://www.w3.org/1999/xlink">
	<g id="main_content" transform="translate(50.000000, 10.000000)">
		<text font-size="20" text-anchor="middle" x="400" y="20">
SHH (human)</text>
		<g transform="translate(0,35)">
			<text dominant-baseline="central" text-anchor="end" x="90" y="10">NC_000007.14</text>
			<g transform="translate(110.000000, 0)">
				<line style="stroke: #888; stroke-opacity: 1; stroke-width: 1" x1="1.10541493111182" x2="1.10541493111182" y1="8" y2="12" />
				<text font-size="8px" text-anchor="middle" x="1.10541493111182" y="6">155800000</text>
				<line style="stroke: #888; stroke-opacity: 1; stroke-width: 1" x1="67.4303107978212" x2="67.4303107978212" y1="8" y2="12" />
				<text font-size="8px" text-anchor="middle" x="67.4303107978212" y="6">155801200</text>
				<line style="stroke: #888; stroke-opacity: 1; stroke-width: 1" x1="133.755206664531" x2="133.755206664531" y1="8" y2="12" />
				<text font-size="8px" text-anchor="middle" x="133.755206664531" y="6">155802400</text>
				<line style="stroke: #888; stroke-opacity: 1; stroke-width: 1" x1="200.08010253124" x2="200.08010253124" y1="8" y2="12" />
				<text font-size="8px" text-anchor="middle" x="200.08010253124" y="6">155803600</text>
				<line style="stroke: #888; stroke-opacity: 1; stroke-width: 1" x1="266.404998397949" x2="266.404998397949" y1="8" y2="12" />
				<text font-size="8px" text-anchor="middle" x="266.404998397949" y="6">155804800</text>
				<line style="stroke: #888; stroke-opacity: 1; stroke-width: 1" x1="332.729894264659" x2="332.729894264659" y1="8" y2="12" />
				<text font-size="8px" text-anchor="middle" x="332.729894264659" y="6">155806000</text>
				<line style="stroke: #888; stroke-opacity: 1; stroke-width: 1" x1="399.054790131368" x2="399.054790131368" y1="8" y2="12" />
				<text font-size="8px" text-anchor="middle" x="399.054790131368" y="6">155807200</text>
				<line style="stroke: #888; stroke-opacity: 1; stroke-width: 1" x1="465.379685998078" x2="465.379685998078" y1="8" y2="12" />
				<text font-size="8px" text-anchor="middle" x="465.379685998078" y="6">155808400</text>
				<line style="stroke: #888; stroke-opacity: 1; stroke-width: 1" x1="531.704581864787" x2="531.704581864787" y1="8" y2="12" />
				<text font-size="8px" text-anchor="middle" x="531.704581864787" y="6">155809600</text>
				<line style="stroke: #888; stroke-opacity: 1; stroke-width: 1" x1="598.029477731496" x2="598.029477731496" y1="8" y2="12" />
				<text font-size="8px" text-anchor="middle" x="598.029477731496" y="6">155810800</text>
				<line style="stroke: #888; stroke-opacity: 1; stroke-width: 1" x1="664.354373598206" x2="664.354373598206" y1="8" y2="12" />
				<text font-size="8px" text-anchor="middle" x="664.354373598206" y="6">155812000</text>
			</g>
		</g>
	</g>
<metadata id="g3v-metadata">
 <track pad="20" content="690" title="90" height="20"/>
 <range length="12484" stop="155812463" chr="NC_000007.14" start="155799980"/>
 <margin>
50</margin>
 <margin>
10</margin>
 <graph width="800" height="60"/>
</metadata>
</svg>